[gd_scene load_steps=5 format=2]

[ext_resource path="res://assets/20784.ttf" type="DynamicFontData" id=1]
[ext_resource path="res://scenes/console/console.gd" type="Script" id=2]

[sub_resource type="DynamicFont" id=1]
font_data = ExtResource( 1 )

[sub_resource type="DynamicFont" id=2]
font_data = ExtResource( 1 )

[node name="Control" type="Panel"]
anchor_right = 1.0
anchor_bottom = 1.0
margin_bottom = -504.0
script = ExtResource( 2 )

[node name="LineEdit" type="LineEdit" parent="."]
margin_left = 40.0
margin_top = 46.0
margin_right = 984.0
margin_bottom = 70.0
custom_fonts/font = SubResource( 1 )
placeholder_text = "WRITE HERE DUDE"

[node name="Label" type="Label" parent="."]
margin_left = 40.0
margin_right = 984.0
margin_bottom = 46.0
custom_fonts/font = SubResource( 2 )
text = "Return console result"
